{
  "project_info": {
    "project_number": "633804826546",
    "firebase_url": "https://eatordie-d8d3e.firebaseio.com",
    "project_id": "eatordie-d8d3e",
    "storage_bucket": "eatordie-d8d3e.appspot.com"
  },
  "client": [
    {
      "client_info": {
        "mobilesdk_app_id": "1:633804826546:android:1cf45dd0ea9187df36a6ab",
        "android_client_info": {
          "package_name": "com.example.eatordie"
        }
      },
      "oauth_client": [
        {
          "client_id": "633804826546-qe9d1uf5fmcpnna28cmcb0iemq0c5a11.apps.googleusercontent.com",
          "client_type": 1,
          "android_info": {
            "package_name": "com.example.eatordie",
            "certificate_hash": "17c4362c13000aded81faa6126da83e38d513394"
          }
        },
        {
          "client_id": "633804826546-1nqq7sttcdlogf7al3rm9mb30l24cvvq.apps.googleusercontent.com",
          "client_type": 3
        }
      ],
      "api_key": [
        {
          "current_key": "AIzaSyA3Dif0g_J2eJPPv0QFb-iLNlnoKU4draQ"
        }
      ],
      "services": {
        "appinvite_service": {
          "other_platform_oauth_client": [
            {
              "client_id": "633804826546-1nqq7sttcdlogf7al3rm9mb30l24cvvq.apps.googleusercontent.com",
              "client_type": 3
            }
          ]
        }
      }
    }
  ],
  "configuration_version": "1"
}